Text Analysis in R:
…
The unnest_tokens function

tibble is great because it does not convert strings to factors and it does not not use row names.

However we still need to tokenize our text for use with the tidytext unnest_tokens() function:

library(tidytext)

strawberry_DF %>% 
  unnest_tokens(word, text)

The unnest_tokens function

## # A tibble: 27 x 2
##     line word            
##    <int> <chr>           
##  1     1 living          
##  2     1 is              
##  3     1 easy            
##  4     1 with            
##  5     1 eyes            
##  6     1 closed          
##  7     2 misunderstanding
##  8     2 all             
##  9     2 you             
## 10     2 see             
## # … with 17 more rows
…
original_books <- austen_books() %>% 
  group_by(book) %>% 
  mutate(linenumber = row_number(),
         #detect Roman numerals after "chapter" in the `text` column
         chapter = cumsum(str_detect(text, regex("^chapter [\\divxlc]",
                   ignore_case = TRUE)))) %>%  
  #matches Roman numerals after "Chapter"
  ungroup()

Tidying Jane Austen’s books

original_books

## # A tibble: 73,422 x 4
##    text                  book                linenumber chapter
##    <chr>                 <fct>                    <int>   <int>
##  1 SENSE AND SENSIBILITY Sense & Sensibility          1       0
##  2 ""                    Sense & Sensibility          2       0
##  3 by Jane Austen        Sense & Sensibility          3       0
##  4 ""                    Sense & Sensibility          4       0
##  5 (1811)                Sense & Sensibility          5       0
##  6 ""                    Sense & Sensibility          6       0
##  7 ""                    Sense & Sensibility          7       0
##  8 ""                    Sense & Sensibility          8       0
##  9 ""                    Sense & Sensibility          9       0
## 10 CHAPTER 1             Sense & Sensibility         10       1
## # … with 73,412 more rows

Convert to a one-token per row format

(tidy_books <- original_books %>% 
  unnest_tokens(word, text))

## # A tibble: 725,055 x 4
##    book                linenumber chapter word       
##    <fct>                    <int>   <int> <chr>      
##  1 Sense & Sensibility          1       0 sense      
##  2 Sense & Sensibility          1       0 and        
##  3 Sense & Sensibility          1       0 sensibility
##  4 Sense & Sensibility          3       0 by         
##  5 Sense & Sensibility          3       0 jane       
##  6 Sense & Sensibility          3       0 austen     
##  7 Sense & Sensibility          5       0 1811       
##  8 Sense & Sensibility         10       1 chapter    
##  9 Sense & Sensibility         10       1 1          
## 10 Sense & Sensibility         13       1 the        
## # … with 725,045 more rows

Removing stopwords

tidytext::stop_words

## # A tibble: 1,149 x 2
##    word        lexicon
##    <chr>       <chr>  
##  1 a           SMART  
##  2 a's         SMART  
##  3 able        SMART  
##  4 about       SMART  
##  5 above       SMART  
##  6 according   SMART  
##  7 accordingly SMART  
##  8 across      SMART  
##  9 actually    SMART  
## 10 after       SMART  
## # … with 1,139 more rows

Removing stopwords

We can use dplyr’s anti_join() function to perform the removal:

(tidy_books <- tidy_books %>% 
  anti_join(stop_words))

## # A tibble: 217,609 x 4
##    book                linenumber chapter word       
##    <fct>                    <int>   <int> <chr>      
##  1 Sense & Sensibility          1       0 sense      
##  2 Sense & Sensibility          1       0 sensibility
##  3 Sense & Sensibility          3       0 jane       
##  4 Sense & Sensibility          3       0 austen     
##  5 Sense & Sensibility          5       0 1811       
##  6 Sense & Sensibility         10       1 chapter    
##  7 Sense & Sensibility         10       1 1          
##  8 Sense & Sensibility         13       1 family     
##  9 Sense & Sensibility         13       1 dashwood   
## 10 Sense & Sensibility         13       1 settled    
## # … with 217,599 more rows

Using count() to find most common words

(tidy_books %>%
dplyr::count(word, sort = TRUE))

## # A tibble: 13,914 x 2
##    word       n
##    <chr>  <int>
##  1 miss    1855
##  2 time    1337
##  3 fanny    862
##  4 dear     822
##  5 lady     817
##  6 sir      806
##  7 day      797
##  8 emma     787
##  9 sister   727
## 10 house    699
## # … with 13,904 more rows
…
 An inner join matches pairs of observations whenever their keys are equal.Wickham, H. & Grolemund, G. (2017). R for Data Science. Import, Tidy, Transform, Visualize, and Model Data. O’Reilly: Sebastopol, CA.

dplyr’s inner_join()

Save the lexicon to a data frame:

(nrc <- get_sentiments("nrc"))

## # A tibble: 13,901 x 2
##    word        sentiment
##    <chr>       <chr>    
##  1 abacus      trust    
##  2 abandon     fear     
##  3 abandon     negative 
##  4 abandon     sadness  
##  5 abandoned   anger    
##  6 abandoned   fear     
##  7 abandoned   negative 
##  8 abandoned   sadness  
##  9 abandonment anger    
## 10 abandonment fear     
## # … with 13,891 more rows
…
jane_austen_nrc <- inner_join(x = tidy_books,
                              y = nrc,
                              by = "word")

or:

jane_austen_nrc <- tidy_books %>% 
  inner_join(nrc)

Jane Austen & NRC

Notice how some words have more than two sentiments (e.g., line 8 and 9)

## # A tibble: 159,272 x 5
##    book                linenumber chapter word        sentiment
##    <fct>                    <int>   <int> <chr>       <chr>    
##  1 Sense & Sensibility          1       0 sense       positive 
##  2 Sense & Sensibility          1       0 sensibility positive 
##  3 Sense & Sensibility         16       1 respectable positive 
##  4 Sense & Sensibility         16       1 respectable trust    
##  5 Sense & Sensibility         17       1 late        negative 
##  6 Sense & Sensibility         17       1 late        sadness  
##  7 Sense & Sensibility         18       1 advanced    positive 
##  8 Sense & Sensibility         19       1 constant    positive 
##  9 Sense & Sensibility         19       1 constant    trust    
## 10 Sense & Sensibility         19       1 companion   joy      
## # … with 159,262 more rows

Filtering for a particular emotion:

Use dplyr’s filter() function:

jane_austen_nrc %>% 
  filter(sentiment == "joy")

## # A tibble: 16,666 x 5
##    book                linenumber chapter word         sentiment
##    <fct>                    <int>   <int> <chr>        <chr>    
##  1 Sense & Sensibility         19       1 companion    joy      
##  2 Sense & Sensibility         28       1 goodness     joy      
##  3 Sense & Sensibility         29       1 comfort      joy      
##  4 Sense & Sensibility         29       1 cheerfulness joy      
##  5 Sense & Sensibility         32       1 marriage     joy      
##  6 Sense & Sensibility         34       1 fortune      joy      
##  7 Sense & Sensibility         34       1 mother       joy      
##  8 Sense & Sensibility         36       1 marriage     joy      
##  9 Sense & Sensibility         37       1 wealth       joy      
## 10 Sense & Sensibility         38       1 fortune      joy      
## # … with 16,656 more rows

Filtering for a sentiment in a particular book:

Filter both the sentiment and the particular book:

jane_austen_nrc %>% 
  filter(sentiment == "positive", book == "Emma")

## # A tibble: 8,454 x 5
##    book  linenumber chapter word      sentiment
##    <fct>      <int>   <int> <chr>     <chr>    
##  1 Emma          15       1 clever    positive 
##  2 Emma          16       1 happy     positive 
##  3 Emma          16       1 blessings positive 
##  4 Emma          17       1 existence positive 
##  5 Emma          21       1 marriage  positive 
##  6 Emma          22       1 mother    positive 
##  7 Emma          24       1 excellent positive 
##  8 Emma          25       1 mother    positive 
##  9 Emma          25       1 affection positive 
## 10 Emma          28       1 friend    positive 
## # … with 8,444 more rows
…
Sentiment Analysis applied to customer reviews

Goal: Understand how customers feel about their roomba product purchase.

library(readr)
(roomba_Reviews <- read_csv("Roomba Reviews.csv") %>% 
  select(Product, Stars, Review))

## # A tibble: 1,833 x 3
##    Product             Stars Review                                        
##    <chr>               <dbl> <chr>                                         
##  1 iRobot Roomba 650 …     5 You would not believe how well this works     
##  2 iRobot Roomba 650 …     4 You just walk away and it does the rest       
##  3 iRobot Roomba 650 …     5 You have to Roomba proof your house but once …
##  4 iRobot Roomba 650 …     3 Yes, it's a fascinating, albeit expensive, bi…
##  5 iRobot Roomba 650 …     5 Years ago I bought one of the original Roomba…
##  6 iRobot Roomba 650 …     5 "Wow.Wow.  I never knew my floors were so dir…
##  7 iRobot Roomba 650 …     1 Wow.. I don't know what to say. This thing wo…
##  8 iRobot Roomba 650 …     5 Wow, wow, WOW!  I wanted to get one of these …
##  9 iRobot Roomba 650 …     5 Wow, the Roomba is the best christmas gift I'…
## 10 iRobot Roomba 650 …     5 Wow, it changes your life. First of all, afte…
## # … with 1,823 more rows

Tidying it up!

(roomba_tidy <- roomba_Reviews %>% 
  unnest_tokens(word, Review) %>% 
  anti_join(stop_words) %>% 
  filter(!word== c("roomba"))) #remove common word

## # A tibble: 76,581 x 3
##    Product                    Stars word       
##    <chr>                      <dbl> <chr>      
##  1 iRobot Roomba 650 for Pets     4 walk       
##  2 iRobot Roomba 650 for Pets     4 rest       
##  3 iRobot Roomba 650 for Pets     5 proof      
##  4 iRobot Roomba 650 for Pets     5 house      
##  5 iRobot Roomba 650 for Pets     5 awesome    
##  6 iRobot Roomba 650 for Pets     5 pet        
##  7 iRobot Roomba 650 for Pets     5 cleans     
##  8 iRobot Roomba 650 for Pets     3 fascinating
##  9 iRobot Roomba 650 for Pets     3 albeit     
## 10 iRobot Roomba 650 for Pets     3 expensive  
## # … with 76,571 more rows

Sentiment Analysis using the Bing lexicon

(roomba_bing <- roomba_tidy %>% 
 inner_join(get_sentiments("bing")))

## # A tibble: 12,915 x 4
##    Product                    Stars word        sentiment
##    <chr>                      <dbl> <chr>       <chr>    
##  1 iRobot Roomba 650 for Pets     5 awesome     positive 
##  2 iRobot Roomba 650 for Pets     3 fascinating positive 
##  3 iRobot Roomba 650 for Pets     3 expensive   negative 
##  4 iRobot Roomba 650 for Pets     3 pain        negative 
##  5 iRobot Roomba 650 for Pets     3 clean       positive 
##  6 iRobot Roomba 650 for Pets     3 clog        negative 
##  7 iRobot Roomba 650 for Pets     3 faster      positive 
##  8 iRobot Roomba 650 for Pets     3 clean       positive 
##  9 iRobot Roomba 650 for Pets     3 patience    positive 
## 10 iRobot Roomba 650 for Pets     5 slow        negative 
## # … with 12,905 more rows
…
